{
    "project_info": {
      "project_number": "5252042581",
      "firebase_url": "https://inventario-ifal.firebaseio.com",
      "project_id": "inventario-ifal",
      "storage_bucket": "inventario-ifal.appspot.com"
    },
    "client": [
      {
        "client_info": {
          "mobilesdk_app_id": "1:5252042581:android:44eb5242b647d860aea9dc",
          "android_client_info": {
            "package_name": "br.com.hagiosdev.inventario_getx"
          }
        },
        "oauth_client": [
          {
            "client_id": "5252042581-epqhkv2dln4as2cgki5v4b0778v6h8km.apps.googleusercontent.com",
            "client_type": 3
          }
        ],
        "api_key": [
          {
            "current_key": "AIzaSyCQWQLSutHbODD2GhCOzFmpyPuBPPUuBH8"
          }
        ],
        "services": {
          "appinvite_service": {
            "other_platform_oauth_client": [
              {
                "client_id": "5252042581-epqhkv2dln4as2cgki5v4b0778v6h8km.apps.googleusercontent.com",
                "client_type": 3
              }
            ]
          }
        }
      },
      {
        "client_info": {
          "mobilesdk_app_id": "1:5252042581:android:83768e96389f40a0aea9dc",
          "android_client_info": {
            "package_name": "com.hagios.inventarioifal"
          }
        },
        "oauth_client": [
          {
            "client_id": "5252042581-epqhkv2dln4as2cgki5v4b0778v6h8km.apps.googleusercontent.com",
            "client_type": 3
          }
        ],
        "api_key": [
          {
            "current_key": "AIzaSyCQWQLSutHbODD2GhCOzFmpyPuBPPUuBH8"
          }
        ],
        "services": {
          "appinvite_service": {
            "other_platform_oauth_client": [
              {
                "client_id": "5252042581-epqhkv2dln4as2cgki5v4b0778v6h8km.apps.googleusercontent.com",
                "client_type": 3
              }
            ]
          }
        }
      }
    ],
    "configuration_version": "1"
  }